<svg version="1.1" xmlns="http://www.w3.org/2000/svg" width="16" height="16" viewBox="0 0 55 64">
<title>github-square</title>
<path d="M18.536 42.857v0c0.071-0.107 0.036-0.321-0.107-0.464-0.179-0.143-0.393-0.179-0.5-0.071-0.071 0.107-0.036 0.321 0.107 0.464 0.179 0.143 0.393 0.179 0.5 0.071zM17.536 41.393c-0.107-0.143-0.286-0.214-0.429-0.143-0.107 0.071-0.107 0.286 0 0.429 0.143 0.179 0.321 0.25 0.429 0.179v0c0.107-0.071 0.107-0.286 0-0.464zM16.071 39.964v0c0.036-0.071-0.036-0.214-0.179-0.286-0.107-0.036-0.25-0.036-0.286 0.071-0.071 0.107 0 0.214 0.143 0.286 0.143 0.036 0.286 0.036 0.321-0.071zM16.821 40.786v0c0.071-0.071 0.071-0.25-0.071-0.357-0.107-0.143-0.286-0.179-0.357-0.107-0.107 0.107-0.071 0.25 0.036 0.393 0.107 0.107 0.286 0.179 0.393 0.071zM19.893 43.464v0c0.036-0.143-0.107-0.321-0.321-0.393s-0.393 0-0.464 0.143c-0.036 0.143 0.107 0.321 0.321 0.393s0.393 0 0.464-0.143zM21.393 43.571v0c0-0.143-0.179-0.286-0.429-0.286-0.214 0-0.357 0.143-0.357 0.286s0.179 0.286 0.393 0.286 0.393-0.143 0.393-0.286zM22.786 43.321v0c-0.036-0.143-0.25-0.214-0.464-0.179s-0.357 0.179-0.321 0.321 0.214 0.25 0.429 0.214 0.357-0.214 0.357-0.357zM45.714 32c0-10.107-8.179-18.286-18.286-18.286s-18.286 8.179-18.286 18.286c0 8.071 5.25 14.929 12.5 17.357 0.929 0.179 1.25-0.393 1.25-0.893 0-0.429 0-1.857-0.036-3.393 0 0-5.071 1.107-6.143-2.179 0 0-0.821-2.107-2.036-2.643 0 0-1.643-1.143 0.143-1.143 0 0 1.786 0.143 2.786 1.893 1.607 2.821 4.286 2 5.321 1.536 0.179-1.179 0.643-2 1.179-2.464-4.071-0.464-8.357-2.036-8.357-9.036 0-2 0.714-3.607 1.893-4.893-0.179-0.464-0.821-2.321 0.179-4.857 1.536-0.464 5.036 1.893 5.036 1.893 1.464-0.429 3-0.607 4.571-0.607s3.107 0.179 4.571 0.607c0 0 3.5-2.357 5.036-1.893 1 2.536 0.357 4.393 0.179 4.857 1.179 1.286 1.893 2.893 1.893 4.893 0 7.036-4.286 8.571-8.357 9.036 0.643 0.571 1.25 1.679 1.25 3.393 0 2.429-0.036 4.393-0.036 5 0 0.5 0.321 1.071 1.25 0.893 7.25-2.429 12.5-9.286 12.5-17.357zM54.857 14.857v34.286c0 5.679-4.607 10.286-10.286 10.286h-34.286c-5.679 0-10.286-4.607-10.286-10.286v-34.286c0-5.679 4.607-10.286 10.286-10.286h34.286c5.679 0 10.286 4.607 10.286 10.286z"></path>
</svg>
